{
    "inputs": {
        "websocket": {
            "server": {
                    "host": "localhost",
                    "port": 4435,
                    "ssl": false
            }
        }
    }
}
