{
    "pose_backends": [
        {
            "name": "trt",
            "params": {
                "optimize": false,
                "keypoint_dataset": "BODY_25",
                "model_path": "livepose/models/trt",
                "model_optimized": "resnet18_baseline_att_224x224_A_epoch_249_trt.pth",
                "model_weights": "resnet18_baseline_att_224x224_A_epoch_249.pth",
                "model_desc": "human_pose.json",
                "model_height": 224,
                "model_width": 224,
                "min_pose_confidence": 0.15
            }
        }
    ],
    "cameras": {
        "input_paths":["/dev/video4"],
        "flip_camera": false,
        "params": {
            "/dev/video4": {
                "resolution": [640, 480],
                "framerate": 30,
                "api": "pyrealsense2",
                "align_frames": false,
                "flip": false,
                "rotate": 0,
                "id": 0
            },
            "/dev/video12": {
                "resolution": [
                    640,
                    480
                ],
                "framerate": 30,
                "api": "pyrealsense2",
                "flip": false,
                "rotate": 0,
                "id": 1
            }
        },
        "intrinsics": {}
    },
    "dimmaps": {
        "realsense_2d_to_3d": {
            "calibration_matrices": [
                [[ 1.0, 0.0, 0.0, 0.0],
                [ 0.0, 1.0, 0.0, 0.0],
                [ 0.0, 0.0, 1.0, 0.0],
                [ 0.0, 0.0, 0.0, 1.0]]
            ]
        }
    },
    "filters": {
        "skeletons": {
            "two_dimensional": true,
            "three_dimensional": false
        }
    },
    "outputs": {
        "websocket": {
            "clients": [{
                "host": "localhost",
                "port": 4435,
                "ssl": false
            }],
            "nb_messages_per_second": 15,
            "flow_sent": {
                "stream_types": ["FILTER"],
                "channel_types": ["OUTPUT"]
            }
        },
        "rosbag": {
            "channels": "COLOR, POSE_2D",
            "compress": false,
            "rosbag_version": 1
        }
    }
}
