{
    "pose_backends": [
        {
            "name": "mmpose",
            "params": {
                "cam_id": "0",
                "enable_detection": 1,
                "det_config": "external/mmpose/demo/mmdetection_cfg/ssdlite_mobilenetv2_scratch_600e_coco.py",
                "det_checkpoint":
                    "https://download.openmmlab.com/mmdetection/v2.0/ssd/ssdlite_mobilenetv2_scratch_600e_coco/ssdlite_mobilenetv2_scratch_600e_coco_20210629_110627-974d9307.pth",
                "enable_human_pose": 1,
                "enable_animal_pose": 0,
                "enable_hand_pose": 0,
                "human_pose_config": "external/mmpose/configs/wholebody/2d_kpt_sview_rgb_img/topdown_heatmap/coco-wholebody/vipnas_res50_coco_wholebody_256x192_dark.py",
                "human_pose_checkpoint": "https://download.openmmlab.com/mmpose/top_down/vipnas/vipnas_res50_wholebody_256x192_dark-67c0ce35_20211112.pth",
                "human_det_ids": [
                    1
                ],
                "animal_pose_config": "external/mmpose/configs/animal/2d_kpt_sview_rgb_img/topdown_heatmap/animalpose/hrnet_w32_animalpose_256x256.py",
                "animal_pose_checkpoint": "https://download.openmmlab.com/mmpose/animal/hrnet/hrnet_w32_animalpose_256x256-1aa7f075_20210426.pth",
                "animal_det_ids": [
                    16,
                    17,
                    18,
                    19,
                    20
                ],
                "hand_pose_config": "external/mmpose/configs/hand/2d_kpt_sview_rgb_img/topdown_heatmap/onehand10k/res50_onehand10k_256x256.py",
                "hand_pose_checkpoint": "https://download.openmmlab.com/mmpose/top_down/resnet/res50_onehand10k_256x256-e67998f6_20200813.pth",
                "hand_det_ids": [
                    1
                ],
                "device": "cuda:0",
                "det_score_thr": 0.5,
                "kpt_thr": 0.3,
                "vis_mode": 2,
                "sunglasses": false,
                "bugeye": false,
                "out_video_file": null,
                "out_video_fps": 20,
                "buffer_size": -1,
                "inference_fps": 40,
                "display_delay": 0,
                "synchronous_mode": false
            }
        }
    ],
    "cameras": {
        "input_paths": [
            "/dev/video0"
        ],
        "flip_camera": false,
        "params": {
            "/dev/video0": {
                "resolution": [
                    640,
                    480
                ],
                "framerate": 30
            }
        },
        "intrinsics": {}
    },
    "filters": {
        "skeletons": {}
    },
    "outputs": {
        "osc": {
            "destinations": {
                "localhost": 9000
            }
        }
    }
}
